{
    "files": {
        "main.css": "/static/css/main.555cc122.chunk.css",
        "main.js": "/static/js/main.838d7fb8.chunk.js",
        "main.js.map": "/static/js/main.838d7fb8.chunk.js.map",
        "runtime-main.js": "/static/js/runtime-main.465ccfd7.js",
        "runtime-main.js.map": "/static/js/runtime-main.465ccfd7.js.map",
        "static/css/2.d36ce547.chunk.css": "/static/css/2.d36ce547.chunk.css",
        "static/js/2.37eef372.chunk.js": "/static/js/2.37eef372.chunk.js",
        "static/js/2.37eef372.chunk.js.map": "/static/js/2.37eef372.chunk.js.map",
        "index.html": "/index.html",
        "precache-manifest.e3db9ce7c4e5c7e61535e1477ba661a5.js": "/precache-manifest.e3db9ce7c4e5c7e61535e1477ba661a5.js",
        "service-worker.js": "/service-worker.js",
        "static/css/2.d36ce547.chunk.css.map": "/static/css/2.d36ce547.chunk.css.map",
        "static/css/main.555cc122.chunk.css.map": "/static/css/main.555cc122.chunk.css.map",
        "static/media/Forward.jpg": "/static/media/Forward.6a3774ac.jpg",
        "static/media/Homeostasis_Image.png": "/static/media/Homeostasis_Image.73e24a1d.png",
        "static/media/index.css": "/static/media/source-sans-pro-latin-900italic.f6a4e055.woff2",
        "static/media/elsland.jpg": "/static/media/elsland.95ff303b.jpg",
        "static/media/imageNightSky.jpg": "/static/media/imageNightSky.afc7423d.jpg",
        "static/media/nyu-logo-h.svg": "/static/media/nyu-logo-h.47ff185e.svg",
        "static/media/nyu-logo-v.svg": "/static/media/nyu-logo-v.86025031.svg"
    },
    "entrypoints": [
        "static/js/runtime-main.465ccfd7.js",
        "static/css/2.d36ce547.chunk.css",
        "static/js/2.37eef372.chunk.js",
        "static/css/main.555cc122.chunk.css",
        "static/js/main.838d7fb8.chunk.js"
    ]
}
